…
__The only corpora that have both voiced and voiceless stops for each talker are the
Buckeye and Allen & Miller data.__

# Installation

```r
devtools::install_github("kleinschmidt/votcorpora", build_vignettes=TRUE)
```

# Usage

``` r
library(votcorpora); vot
#> # A tibble: 15,342 x 19
#>    source subject phoneme   vot prevoiced word  sex     age age_group
#>    <chr>  <chr>   <fct>   <dbl> <lgl>     <chr> <chr> <dbl> <chr>    
#>  1 levar… la_1    k          52 NA        keep… f        47 o        
#>  2 levar… la_1    k          42 NA        cove… f        47 o        
#>  3 levar… la_1    k          75 NA        carr… f        47 o        
#>  4 levar… la_1    k          54 NA        cavi… f        47 o        
#>  5 levar… la_1    k          57 NA        kate  f        47 o        
#>  6 levar… la_1    k          58 NA        car   f        47 o        
#>  7 levar… la_1    k          50 NA        comf… f        47 o        
#>  8 levar… la_1    k          54 NA        Kayla f        47 o        
#>  9 levar… la_1    k          61 NA        call… f        47 o        
#> 10 levar… la_1    k          55 NA        caug… f        47 o        
#> # … with 15,332 more rows, and 10 more variables: bilingual <lgl>,
#> #   speech_rate <dbl>, stop_length <dbl>, vowel_duration <dbl>,
#> #   final_phoneme <fct>, final_closure <dbl>, final_aspiration <dbl>,
#> #   speech_rate_condition <fct>, voicing <fct>, place <fct>
```
…
